<svg width="1147" height="546" viewBox="0 0 1147 546" fill="none" xmlns="http://www.w3.org/2000/svg">
<g clip-path="url(#clip0)">
<path d="M327.357 148.116V197.762H423.813V244.927H327.357V335H266.363V100.952H448.282V148.116H327.357ZM509.385 137.123C497.091 137.123 488.107 134.877 482.434 130.385C476.996 125.657 474.277 118.328 474.277 108.399C474.277 98.2328 476.996 90.904 482.434 86.4122C488.107 81.684 497.091 79.3198 509.385 79.3198C521.678 79.3198 530.544 81.684 535.981 86.4122C541.655 90.904 544.492 98.2328 544.492 108.399C544.492 118.328 541.655 125.657 535.981 130.385C530.544 134.877 521.678 137.123 509.385 137.123ZM539.527 335H479.242V157.691H539.527V335ZM698.756 154.144C717.433 154.144 732.327 159.582 743.438 170.457C754.55 181.332 760.105 196.817 760.105 216.912V335H699.82V233.579C699.82 221.522 697.574 213.011 693.083 208.046C688.827 202.845 682.68 200.245 674.642 200.245C665.186 200.245 657.503 203.673 651.592 210.529C645.682 217.148 642.727 227.432 642.727 241.381V335H582.442V157.691H636.344L638.117 191.734C643.791 179.204 651.829 169.866 662.231 163.719C672.633 157.336 684.808 154.144 698.756 154.144ZM832.489 137.123C820.196 137.123 811.212 134.877 805.538 130.385C800.101 125.657 797.382 118.328 797.382 108.399C797.382 98.2328 800.101 90.904 805.538 86.4122C811.212 81.684 820.196 79.3198 832.489 79.3198C844.783 79.3198 853.648 81.684 859.086 86.4122C864.76 90.904 867.596 98.2328 867.596 108.399C867.596 118.328 864.76 125.657 859.086 130.385C853.648 134.877 844.783 137.123 832.489 137.123ZM862.632 335H802.347V157.691H862.632V335ZM994.556 262.303L965.831 294.219V335H905.546V82.5114H965.831V232.16L1033.56 157.691H1100.23L1034.98 227.196L1104.13 335H1037.46L994.556 262.303Z" fill="#333333"/>
<mask id="mask0" mask-type="alpha" maskUnits="userSpaceOnUse" x="0" y="47" width="320" height="320">
<circle cx="159.578" cy="206.861" r="159.578" fill="black"/>
</mask>
<g mask="url(#mask0)">
<circle cx="159.578" cy="206.861" r="159.578" fill="#333333"/>
<path d="M327.357 148.796V198.443H423.813V245.607H327.357V335.68H266.362V101.632H448.281V148.796H327.357Z" fill="white"/>
<path d="M509.384 137.803C497.09 137.803 488.107 135.557 482.433 131.065C476.995 126.337 474.277 119.008 474.277 109.079C474.277 98.913 476.995 91.5842 482.433 87.0924C488.107 82.3641 497.09 80 509.384 80C521.677 80 530.543 82.3641 535.98 87.0924C541.654 91.5842 544.491 98.913 544.491 109.079C544.491 119.008 541.654 126.337 535.98 131.065C530.543 135.557 521.677 137.803 509.384 137.803ZM539.526 335.68H479.241V158.371H539.526V335.68Z" fill="white"/>
<path d="M698.756 154.825C717.432 154.825 732.326 160.262 743.438 171.137C754.549 182.012 760.105 197.497 760.105 217.592V335.68H699.82V234.259C699.82 222.202 697.574 213.691 693.082 208.727C688.826 203.525 682.68 200.925 674.642 200.925C665.185 200.925 657.502 204.353 651.592 211.209C645.681 217.828 642.726 228.112 642.726 242.061V335.68H582.441V158.371H636.343L638.116 192.414C643.79 179.884 651.828 170.546 662.23 164.399C672.632 158.016 684.807 154.825 698.756 154.825Z" fill="white"/>
<path d="M832.488 137.803C820.195 137.803 811.211 135.557 805.537 131.065C800.1 126.337 797.381 119.008 797.381 109.079C797.381 98.913 800.1 91.5842 805.537 87.0924C811.211 82.3641 820.195 80 832.488 80C844.782 80 853.647 82.3641 859.085 87.0924C864.759 91.5842 867.596 98.913 867.596 109.079C867.596 119.008 864.759 126.337 859.085 131.065C853.647 135.557 844.782 137.803 832.488 137.803ZM862.631 335.68H802.346V158.371H862.631V335.68Z" fill="white"/>
<path d="M994.555 262.983L965.831 294.899V335.68H905.545V83.1916H965.831V232.841L1033.56 158.371H1100.23L1034.98 227.876L1104.13 335.68H1037.46L994.555 262.983Z" fill="white"/>
<path fill-rule="evenodd" clip-rule="evenodd" d="M200.95 35.4619H189.13V153.668H164.965V330.977H189.13V378.26H200.95V330.977H225.25V153.668H200.95V35.4619Z" fill="white"/>
<path fill-rule="evenodd" clip-rule="evenodd" d="M106.386 153.668H94.5654V271.874H70.9647V449.183H94.5654V496.466H106.386V449.183H131.25V271.874H106.386V153.668Z" fill="white"/>
</g>
<path d="M324.798 472H310.493V439.895C310.493 430.577 311.184 421.076 312.568 411.394L286.906 472H269.106V396.543H283.411V428.975C283.411 435.018 283.229 440.041 282.865 444.045C282.501 448.049 281.992 452.417 281.336 457.149L307.435 396.543H324.798V472ZM402.316 472V438.257H375.453V472H361.039V396.543H375.453V426.791H402.316V396.543H416.84V472H402.316ZM489.99 432.033C495.159 432.979 499.309 434.836 502.439 437.602C505.642 440.368 507.244 444.591 507.244 450.269C507.244 458.132 504.478 463.737 498.945 467.086C493.412 470.362 485.659 472 475.685 472H452.972V396.543H472.737C493.558 396.543 503.968 402.949 503.968 415.762C503.968 420.203 502.621 423.843 499.928 426.682C497.234 429.448 493.922 431.232 489.99 432.033ZM467.386 407.135V427.556H476.231C480.235 427.556 483.402 426.682 485.732 424.935C488.061 423.115 489.226 420.458 489.226 416.963C489.226 413.323 487.988 410.775 485.513 409.319C483.111 407.863 479.325 407.135 474.156 407.135H467.386ZM475.794 461.189C481.109 461.189 485.149 460.388 487.916 458.787C490.755 457.185 492.174 454.164 492.174 449.723C492.174 445.428 490.828 442.334 488.134 440.441C485.513 438.548 481.91 437.602 477.323 437.602H467.386V461.189H475.794ZM582.295 396.543L580.766 407.244H552.92V428.32H577.163V439.022H552.92V461.189H582.732V472H538.506V396.543H582.295ZM642.418 394.905C647.005 394.905 651.009 395.56 654.43 396.87C657.852 398.181 661.201 400.183 664.477 402.876L657.16 411.394C652.719 407.827 648.06 406.043 643.183 406.043C637.577 406.043 633.063 408.3 629.642 412.814C626.293 417.327 624.619 424.425 624.619 434.108C624.619 443.572 626.293 450.597 629.642 455.183C632.991 459.77 637.504 462.063 643.183 462.063C646.167 462.063 648.825 461.553 651.154 460.534C653.484 459.442 655.959 457.913 658.58 455.948L665.35 464.465C662.802 467.086 659.563 469.27 655.631 471.017C651.773 472.764 647.441 473.638 642.637 473.638C636.085 473.638 630.297 472.109 625.274 469.052C620.251 465.994 616.356 461.517 613.589 455.62C610.823 449.65 609.44 442.48 609.44 434.108C609.44 425.881 610.859 418.82 613.699 412.923C616.611 407.026 620.542 402.549 625.492 399.491C630.515 396.434 636.157 394.905 642.418 394.905ZM741.637 396.543L740.108 408.009H720.452V472H705.928V408.009H685.617V396.543H741.637ZM825.314 472H811.009V439.895C811.009 430.577 811.7 421.076 813.083 411.394L787.421 472H769.622V396.543H783.927V428.975C783.927 435.018 783.745 440.041 783.381 444.045C783.017 448.049 782.507 452.417 781.852 457.149L807.951 396.543H825.314V472ZM916.045 460.643H924.781V489.254H914.298L912.442 472H861.554V396.543H875.969V460.534H901.522V396.543H916.045V460.643ZM1009.71 472H995.407V439.895C995.407 430.577 996.099 421.076 997.482 411.394L971.82 472H954.02V396.543H968.326V428.975C968.326 435.018 968.144 440.041 967.78 444.045C967.416 448.049 966.906 452.417 966.251 457.149L992.35 396.543H1009.71V472ZM1101.65 472H1087.34V439.895C1087.34 430.577 1088.03 421.076 1089.41 411.394L1063.75 472H1045.95V396.543H1060.26V428.975C1060.26 435.018 1060.08 440.041 1059.71 444.045C1059.35 448.049 1058.84 452.417 1058.18 457.149L1084.28 396.543H1101.65V472Z" fill="#333333"/>
</g>
<defs>
<clipPath id="clip0">
<rect width="1146.6" height="546" fill="white"/>
</clipPath>
</defs>
</svg>
