<?xml version="1.0" encoding="UTF-8"?>
<svg width="272px" height="160px" viewBox="0 0 272 160" version="1.1" xmlns="http://www.w3.org/2000/svg" xmlns:xlink="http://www.w3.org/1999/xlink">
    <!-- Generator: Sketch 64 (93537) - https://sketch.com -->
    <title>VTB</title>
    <desc>Created with Sketch.</desc>
    <defs>
        <polygon id="path-1" points="1.00218847 51.7990681 117.628582 51.7990681 117.628582 0.980160459 1.00218847 0.980160459"></polygon>
    </defs>
    <g id="VTB" stroke="none" stroke-width="1" fill="none" fill-rule="evenodd">
        <g id="vtb-ru" transform="translate(10.000000, 48.000000)">
            <path d="M12.2530959,0 L9.18790971,8.51496361 L51.6645435,8.51496361 L54.7297297,0 L12.2530959,0 Z M7.65436056,12.7705119 L4.58917446,21.2835421 L47.0658083,21.2835421 L50.1309945,12.7705119 L7.65436056,12.7705119 Z M3.0651861,25.541024 L0,34.0540541 L42.4766339,34.0540541 L45.5399079,25.541024 L3.0651861,25.541024 Z" id="Fill-1" fill="#009FDF" fill-rule="nonzero"></path>
            <g id="Fill-2-Clipped" transform="translate(62.027027, 12.162162)">
                <g>
                    <mask id="mask-2" fill="white">
                        <use xlink:href="#path-1"></use>
                    </mask>
                    <g id="path-1"></g>
                    <path d="M27.6566607,24.7186306 L27.6566607,24.8936733 C29.6037275,25.5976908 31.4636121,26.8287597 32.438114,27.6193368 C35.4488024,30.0814744 36.7778451,33.3341892 36.7778451,37.5544473 C36.7778451,44.5022922 33.0580756,49.5131271 26.9475796,51.0962049 C25.087695,51.6232562 23.1406281,51.8002223 19.5080409,51.8002223 L1.00218847,51.8002223 L1.00218847,0.980160459 L17.3846724,0.980160459 C20.7499015,0.980160459 23.0515088,1.15520306 25.087695,1.68225442 C31.0218895,3.26533204 34.9179604,7.31054741 34.9179604,13.727494 C34.9179604,17.1571749 33.6780372,20.0598045 31.6418509,21.9929672 C30.7564683,22.8720273 29.5165452,23.9280537 27.6566607,24.7186306 Z M11.2741764,30.0814744 L11.2741764,43.4462658 L18.3591747,43.4462658 C20.4825431,43.4462658 22.4315472,43.2712233 23.8497092,41.9516712 C25.2659339,40.6321194 25.8858954,38.9624823 25.8858954,36.7638701 C25.8858954,35.0942331 25.4422354,33.5111553 24.5568529,32.3685696 C23.0515088,30.5219664 21.1916239,30.0814744 18.0046343,30.0814744 L11.2741764,30.0814744 Z M11.1850571,21.2889498 L16.9410126,21.2889498 C18.7117778,21.2889498 19.5971604,21.2889498 20.4825431,21.0254241 C22.8752072,20.3214066 24.3805512,18.213201 24.3805512,15.3105715 C24.3805512,11.8828141 22.7860876,10.3862961 20.4825431,9.684202 C19.5080409,9.42067631 18.5354763,9.33219334 16.586472,9.33219334 L11.1850571,9.33219334 L11.1850571,21.2889498 Z M52.1858271,51.8002223 L52.1858271,9.50723589 L37.3978067,9.50723589 L37.3978067,0.980160459 L78.4876962,0.980160459 L75.5661273,9.50723589 L62.4578153,9.50723589 L62.4578153,51.8002223 L52.1858271,51.8002223 Z M81.6746861,51.8002223 L81.6746861,0.980160459 L114.972434,0.980160459 L112.050865,9.50723589 L91.8594921,9.50723589 L91.8594921,20.7618985 L100.095294,20.7618985 C106.736632,20.7618985 110.19098,22.344976 112.581707,24.3666219 C114.441592,25.9496995 117.628582,29.46594 117.628582,36.4137849 C117.628582,43.2712233 114.352472,47.0509893 111.607205,48.9860757 C108.420215,51.1827642 105.054986,51.8002223 98.2354091,51.8002223 L81.6746861,51.8002223 Z M91.8594921,43.2712233 L99.5644518,43.2712233 C102.486021,43.2712233 104.256786,42.5672057 105.496709,40.984128 C106.11667,40.1935511 107.002053,38.7855162 107.002053,36.1483357 C107.002053,33.5111553 106.11667,31.6645521 104.345905,30.3450001 C103.284221,29.5544232 101.866059,29.1158548 99.4753322,29.1158548 L91.8594921,29.1158548 L91.8594921,43.2712233 Z" id="Fill-2" fill="#0A2973" fill-rule="nonzero" mask="url(#mask-2)"></path>
                </g>
            </g>
        </g>
    </g>
</svg>