<svg width="14" height="14" viewBox="0 0 14 14" fill="none" xmlns="http://www.w3.org/2000/svg">
<path fill-rule="evenodd" clip-rule="evenodd" d="M5.83334 10.5C3.25601 10.5 1.16667 8.41062 1.16667 5.83329C1.16667 3.25596 3.25601 1.16663 5.83334 1.16663C8.41067 1.16663 10.5 3.25596 10.5 5.83329C10.5 6.91172 10.1342 7.90471 9.5199 8.69494L12.6625 11.8375L11.8375 12.6624L8.69494 9.51989C7.90471 10.1342 6.91174 10.5 5.83334 10.5ZM9.33334 5.83329C9.33334 7.76629 7.76634 9.33329 5.83334 9.33329C3.90034 9.33329 2.33334 7.76629 2.33334 5.83329C2.33334 3.9003 3.90034 2.33329 5.83334 2.33329C7.76634 2.33329 9.33334 3.9003 9.33334 5.83329Z" fill="#333333"/>
<path d="M9.5199 8.69494L9.12515 8.38807L8.85432 8.73647L9.16635 9.04849L9.5199 8.69494ZM12.6625 11.8375L13.016 12.191L13.3696 11.8375L13.016 11.4839L12.6625 11.8375ZM11.8375 12.6624L11.4839 13.016L11.8375 13.3696L12.191 13.016L11.8375 12.6624ZM8.69494 9.51989L9.04849 9.16634L8.73647 8.85432L8.38808 9.12513L8.69494 9.51989ZM0.666672 5.83329C0.666672 8.68676 2.97987 11 5.83334 11V9.99996C3.53215 9.99996 1.66667 8.13448 1.66667 5.83329H0.666672ZM5.83334 0.666626C2.97987 0.666626 0.666672 2.97982 0.666672 5.83329H1.66667C1.66667 3.53211 3.53215 1.66663 5.83334 1.66663V0.666626ZM11 5.83329C11 2.97982 8.68681 0.666626 5.83334 0.666626V1.66663C8.13452 1.66663 10 3.53211 10 5.83329H11ZM9.91466 9.00181C10.5948 8.12693 11 7.02673 11 5.83329H10C10 6.7967 9.67365 7.68248 9.12515 8.38807L9.91466 9.00181ZM13.016 11.4839L9.87346 8.34139L9.16635 9.04849L12.3089 12.191L13.016 11.4839ZM12.191 13.016L13.016 12.191L12.3089 11.4839L11.4839 12.3089L12.191 13.016ZM8.34139 9.87345L11.4839 13.016L12.191 12.3089L9.04849 9.16634L8.34139 9.87345ZM5.83334 11C7.02676 11 8.12693 10.5947 9.0018 9.91465L8.38808 9.12513C7.68249 9.67361 6.79673 9.99996 5.83334 9.99996V11ZM5.83334 9.83329C8.04248 9.83329 9.83334 8.04243 9.83334 5.83329H8.83334C8.83334 7.49014 7.49019 8.83329 5.83334 8.83329V9.83329ZM1.83334 5.83329C1.83334 8.04243 3.6242 9.83329 5.83334 9.83329V8.83329C4.17648 8.83329 2.83334 7.49014 2.83334 5.83329H1.83334ZM5.83334 1.83329C3.6242 1.83329 1.83334 3.62415 1.83334 5.83329H2.83334C2.83334 4.17644 4.17648 2.83329 5.83334 2.83329V1.83329ZM9.83334 5.83329C9.83334 3.62415 8.04248 1.83329 5.83334 1.83329V2.83329C7.49019 2.83329 8.83334 4.17644 8.83334 5.83329H9.83334Z" fill=""/>
</svg>
