<svg width="12" height="12" viewBox="0 0 12 12" fill="none" xmlns="http://www.w3.org/2000/svg">
<path d="M0.15141 0.15141C-0.0504702 0.353291 -0.0504701 0.680604 0.15141 0.882484L5.26893 6L0.15141 11.1175C-0.0504701 11.3194 -0.0504702 11.6467 0.15141 11.8486C0.353291 12.0505 0.680604 12.0505 0.882484 11.8486L6 6.73107L11.1175 11.8486C11.3194 12.0505 11.6467 12.0505 11.8486 11.8486C12.0505 11.6467 12.0505 11.3194 11.8486 11.1175L6.73107 6L11.8486 0.882484C12.0505 0.680604 12.0505 0.353291 11.8486 0.15141C11.6467 -0.0504703 11.3194 -0.0504699 11.1175 0.15141L6 5.26893L0.882484 0.15141C0.680604 -0.0504701 0.353291 -0.0504699 0.15141 0.15141Z" fill="#FEBA0C"/>
</svg>
