<svg width="14" height="14" viewBox="0 0 14 14" fill="none" xmlns="http://www.w3.org/2000/svg">
<path fill-rule="evenodd" clip-rule="evenodd" d="M5.83366 10.5C3.25633 10.5 1.16699 8.41062 1.16699 5.83329C1.16699 3.25596 3.25633 1.16663 5.83366 1.16663C8.41099 1.16663 10.5003 3.25596 10.5003 5.83329C10.5003 6.91172 10.1345 7.90471 9.52022 8.69494L12.6628 11.8375L11.8378 12.6624L8.69526 9.51989C7.90503 10.1342 6.91206 10.5 5.83366 10.5ZM9.33366 5.83329C9.33366 7.76629 7.76666 9.33329 5.83366 9.33329C3.90066 9.33329 2.33366 7.76629 2.33366 5.83329C2.33366 3.9003 3.90066 2.33329 5.83366 2.33329C7.76666 2.33329 9.33366 3.9003 9.33366 5.83329Z" fill="#333333"/>
<path d="M9.52022 8.69494L9.12547 8.38807L8.85464 8.73647L9.16667 9.04849L9.52022 8.69494ZM12.6628 11.8375L13.0163 12.191L13.3699 11.8375L13.0163 11.4839L12.6628 11.8375ZM11.8378 12.6624L11.4843 13.016L11.8378 13.3696L12.1914 13.016L11.8378 12.6624ZM8.69526 9.51989L9.04881 9.16634L8.73679 8.85432L8.3884 9.12513L8.69526 9.51989ZM0.666992 5.83329C0.666992 8.68676 2.98019 11 5.83366 11V9.99996C3.53247 9.99996 1.66699 8.13448 1.66699 5.83329H0.666992ZM5.83366 0.666626C2.98019 0.666626 0.666992 2.97982 0.666992 5.83329H1.66699C1.66699 3.53211 3.53247 1.66663 5.83366 1.66663V0.666626ZM11.0003 5.83329C11.0003 2.97982 8.68713 0.666626 5.83366 0.666626V1.66663C8.13485 1.66663 10.0003 3.53211 10.0003 5.83329H11.0003ZM9.91498 9.00181C10.5951 8.12693 11.0003 7.02673 11.0003 5.83329H10.0003C10.0003 6.7967 9.67397 7.68248 9.12547 8.38807L9.91498 9.00181ZM13.0163 11.4839L9.87378 8.34139L9.16667 9.04849L12.3092 12.191L13.0163 11.4839ZM12.1914 13.016L13.0163 12.191L12.3092 11.4839L11.4843 12.3089L12.1914 13.016ZM8.34171 9.87345L11.4843 13.016L12.1914 12.3089L9.04881 9.16634L8.34171 9.87345ZM5.83366 11C7.02708 11 8.12725 10.5947 9.00212 9.91465L8.3884 9.12513C7.68281 9.67361 6.79705 9.99996 5.83366 9.99996V11ZM5.83366 9.83329C8.0428 9.83329 9.83366 8.04243 9.83366 5.83329H8.83366C8.83366 7.49014 7.49051 8.83329 5.83366 8.83329V9.83329ZM1.83366 5.83329C1.83366 8.04243 3.62452 9.83329 5.83366 9.83329V8.83329C4.1768 8.83329 2.83366 7.49014 2.83366 5.83329H1.83366ZM5.83366 1.83329C3.62452 1.83329 1.83366 3.62415 1.83366 5.83329H2.83366C2.83366 4.17644 4.1768 2.83329 5.83366 2.83329V1.83329ZM9.83366 5.83329C9.83366 3.62415 8.0428 1.83329 5.83366 1.83329V2.83329C7.49051 2.83329 8.83366 4.17644 8.83366 5.83329H9.83366Z" fill="#333333"/>
</svg>
